1 96964 351
1 470540 449
1 234183 443
1 469702 449
1 125177 354
1 351715 443
1 397299 443
1 274633 443
1 37228 324
1 3661 217
1 497740 449
1 386135 443
1 292662 443
1 201506 383
1 99416 351
1 247572 443
1 236388 443
1 220138 386
1 216222 383
1 286363 443
1 460004 449
1 270093 443
1 326555 443
1 165053 383
1 444325 449
1 95867 351
1 219555 386
1 241626 443
1 317295 443
1 180146 383
1 133345 354
1 35694 324
1 346368 443
1 496253 449
1 414694 449
1 117049 354
1 40426 324
1 133509 354
1 190666 383
1 267890 443
1 290940 443
1 419623 449
1 114345 354
1 14480 276
1 105873 351
1 95764 351
1 352291 443
1 301007 443
1 223882 386
1 98544 351
1 403424 443
1 126944 354
1 181299 383
1 263823 443
1 102725 351
1 341791 443
1 270734 443
1 352073 443
1 323468 443
1 203057 383
1 120742 354
1 239758 443
1 63127 340
1 285608 443
1 396832 443
1 155159 375
636923 999999 525
444425 999999 525
887120 999999 507
628807 999999 525
271920 999999 525
30196 999999 525
347189 999999 525
203197 999999 525
339882 999999 525
302269 999999 525
905711 999999 507
414995 999999 525
166267 999999 525
311085 999999 525
816202 999999 525
521505 999999 525
13293 999999 525
438968 999999 525
580698 999999 525
844370 999999 507
124163 999999 525
589899 999999 525
603564 999999 525
392129 999999 525
874126 999999 507
274980 999999 525
625601 999999 525
452123 999999 525
319343 999999 525
714530 999999 525
428510 999999 525
325578 999999 525
714795 999999 525
739248 999999 525
475752 999999 525
79670 999999 525
898245 999999 507
110913 999999 525
862706 999999 507
304905 999999 525
515291 999999 525
988584 999999 440
312418 999999 525
863477 999999 507
981662 999999 440
784461 999999 525
188506 999999 525
509406 999999 525
113750 999999 525
970939 999999 440
584985 999999 525
135532 999999 525
152474 999999 525
392958 999999 525
262624 999999 525
865367 999999 507
584404 999999 525
37688 999999 525
39904 999999 525
269794 999999 525
686501 999999 525
440225 999999 525
952051 999999 458
292466 999999 525
562035 999999 525
636942 999999 525
